…
    readRDS(file.path("data", "coal_regions.rds"))

    ## # A tibble: 253 x 5
    ##    country_code_is~ region_nuts_nam~ region_nuts_cod~ coal_region is_coal_region
    ##    <chr>            <fct>            <chr>            <chr>                <dbl>
    ##  1 BE               Brussels hoofds~ BE10             <NA>                     0
    ##  2 BE               Liege            BE33             <NA>                     0
    ##  3 BE               Brabant Wallon   BE31             <NA>                     0
    ##  4 BE               Antwerpen        BE21             <NA>                     0
    ##  5 BE               Limburg [BE]     BE22             <NA>                     0
    ##  6 BE               Oost-Vlaanderen  BE23             <NA>                     0
    ##  7 BE               Vlaams Brabant   BE24             <NA>                     0
    ##  8 BE               West-Vlaanderen  BE25             <NA>                     0
    ##  9 BE               Hainaut          BE32             <NA>                     0
    ## 10 BE               Namur            BE35             <NA>                     0
    ## # ... with 243 more rows
…
